^C:\USERS\POWER\SOURCE\REPOS\NEW PROJECT\NEW PROJECT.CPP
C:\USERS\POWER\SOURCE\REPOS\NEW PROJECT\DEBUG\VC142.PDB
C:\USERS\POWER\SOURCE\REPOS\NEW PROJECT\DEBUG\VC142.IDB
C:\USERS\POWER\SOURCE\REPOS\NEW PROJECT\DEBUG\NEW PROJECT.OBJ
